{
    "timestamp_unix": 1544556249.015595,
    "timestamp_utc": "2018-12-11 19:24:09.015598",
    "new_alert": {
        "ra": 291.3346904,
        "survey": 1,
        "ingest_time": 1544216380,
        "mjd": 58381.2279514,
        "dec": 27.0027883,
        "original_id": 627227954215010000,
        "alert_id": 5803955,
        "locus_id": 8145,
        "htm20": 13917271198099,
        "properties": {
            "ztf_fid": 1,
            "ztf_pid": 627227954215,
            "ztf_programid": 1,
            "ztf_candid": 627227954215010000,
            "ztf_tblid": 0,
            "ztf_nid": 627,
            "ztf_rcid": 42,
            "ztf_field": 639,
            "ztf_nneg": 9,
            "ztf_nbad": 0,
            "ztf_ndethist": 58,
            "ztf_ncovhist": 409,
            "ztf_tooflag": 0,
            "ztf_objectidps1": 140402913346193843,
            "ztf_objectidps2": 140402913363165002,
            "ztf_objectidps3": 140402913333622526,
            "ztf_nmtchps": 76,
            "ztf_rfid": 639120142,
            "ztf_nframesref": 15,
            "ztf_nmatches": 1591,
            "ztf_jd": 2458381.7279514,
            "ztf_diffmaglim": 19.9919109344482,
            "ztf_xpos": 2727.79345703125,
            "ztf_ypos": 141.249496459961,
            "ztf_ra": 291.3346904,
            "ztf_dec": 27.0027883,
            "ztf_magpsf": 18.9373035430908,
            "ztf_sigmapsf": 0.176215618848801,
            "ztf_chipsf": 2.88193726539612,
            "ztf_magap": 19.0902996063232,
            "ztf_sigmagap": 0.168500006198883,
            "ztf_distnr": 0.345887929201126,
            "ztf_magnr": 16.7970008850098,
            "ztf_sigmagnr": 0.017000000923872,
            "ztf_chinr": 0.680000007152557,
            "ztf_sharpnr": 0.0280000008642673,
            "ztf_sky": -0.97325211763382,
            "ztf_magdiff": 0.152997002005577,
            "ztf_fwhm": 1.32145965099335,
            "ztf_classtar": 0.987999975681305,
            "ztf_mindtoedge": 141.249496459961,
            "ztf_magfromlim": 0.901610910892487,
            "ztf_seeratio": 2.0,
            "ztf_aimage": 0.633000016212463,
            "ztf_bimage": 0.575999975204468,
            "ztf_aimagerat": 0.479015737771988,
            "ztf_bimagerat": 0.435881644487381,
            "ztf_elong": 1.09895837306976,
            "ztf_rb": 0.716666638851166,
            "ztf_ssdistnr": -999.0,
            "ztf_ssmagnr": -999.0,
            "ztf_sumrat": 0.928804814815521,
            "ztf_magapbig": 19.2483005523682,
            "ztf_sigmagapbig": 0.246500000357628,
            "ztf_ranr": 291.3345928,
            "ztf_decnr": 27.0027442,
            "ztf_sgmag1": 16.9043998718262,
            "ztf_srmag1": 15.1589002609253,
            "ztf_simag1": 12.5150003433228,
            "ztf_szmag1": 11.5790004730225,
            "ztf_sgscore1": 1.0,
            "ztf_distpsnr1": 0.387866228818893,
            "ztf_jdstarthist": 2458247.8927778,
            "ztf_jdendhist": 2458381.7279514,
            "ztf_scorr": 5.07141780853271,
            "ztf_sgmag2": 21.5006999969482,
            "ztf_srmag2": 20.1811008453369,
            "ztf_simag2": 19.6082992553711,
            "ztf_szmag2": 19.05299949646,
            "ztf_sgscore2": 0.5,
            "ztf_distpsnr2": 6.06726741790771,
            "ztf_sgmag3": 17.7215003967285,
            "ztf_srmag3": 17.5527992248535,
            "ztf_simag3": 17.5006008148193,
            "ztf_szmag3": 17.3966999053955,
            "ztf_sgscore3": 0.913958013057709,
            "ztf_distpsnr3": 6.14367532730103,
            "ztf_jdstartref": 2458204.006921,
            "ztf_jdendref": 2458246.968275,
            "ztf_dsnrms": 14.0002298355103,
            "ztf_ssnrms": 20.4872379302979,
            "ztf_dsdiff": -6.4870080947876,
            "ztf_magzpsci": 26.3533039093018,
            "ztf_magzpsciunc": 3.3122000786534e-06,
            "ztf_magzpscirms": 0.0255789998918772,
            "ztf_clrcoeff": -0.0832640007138252,
            "ztf_clrcounc": 4.11739983974257e-06,
            "ztf_zpclrcov": -3.58000011146942e-06,
            "ztf_zpmed": 26.2830009460449,
            "ztf_clrmed": 0.792999982833862,
            "ztf_clrrms": 0.22027899324894,
            "ztf_neargaia": 6.06482982635498,
            "ztf_neargaiabright": 59.5843124389648,
            "ztf_maggaia": 20.0013313293457,
            "ztf_maggaiabright": 12.8405857086182,
            "ztf_exptime": 30.0,
            "ztf_pdiffimfilename": "ztf_20180920227940_000639_zg_c11_o_q3_scimrefdiffimg.fits",
            "ztf_programpi": "Kulkarni",
            "ztf_isdiffpos": "f",
            "ztf_ssnamenr": "null",
            "ztf_rbversion": "t8_f5_c3",
            "passband": "g"
        }
    },
    "alert_history": [
        {
            "ra": 291.3346362,
            "survey": 1,
            "ingest_time": 1542242569,
            "mjd": 58271.4624073999,
            "dec": 27.0027188,
            "original_id": 517462404215010004,
            "alert_id": 10005,
            "locus_id": 8145,
            "htm20": 13917271328352,
            "properties": {
                "ztf_fid": 1,
                "ztf_pid": 517462404215,
                "ztf_programid": 1,
                "ztf_candid": 517462404215010004,
                "ztf_tblid": 4,
                "ztf_nid": 517,
                "ztf_rcid": 42,
                "ztf_field": 639,
                "ztf_nneg": 4,
                "ztf_nbad": 0,
                "ztf_ndethist": 6,
                "ztf_ncovhist": 12,
                "ztf_tooflag": 0,
                "ztf_objectidps1": 140402913346193843,
                "ztf_objectidps2": 140402913333622526,
                "ztf_objectidps3": 140402913363165002,
                "ztf_nmtchps": 76,
                "ztf_rfid": 639120142,
                "ztf_nframesref": 15,
                "ztf_jd": 2458271.9624074,
                "ztf_diffmaglim": 19.8873710632324,
                "ztf_xpos": 2777.06127929688,
                "ztf_ypos": 523.175109863281,
                "ztf_ra": 291.3346362,
                "ztf_dec": 27.0027188,
                "ztf_magpsf": 18.7361278533936,
                "ztf_sigmapsf": 0.0835629999637604,
                "ztf_chipsf": 2.01091885566711,
                "ztf_magap": 18.8915004730225,
                "ztf_sigmagap": 0.14920000731945,
                "ztf_distnr": 0.158310264348984,
                "ztf_magnr": 16.7970008850098,
                "ztf_sigmagnr": 0.017000000923872,
                "ztf_chinr": 0.680000007152557,
                "ztf_sharpnr": 0.0280000008642673,
                "ztf_sky": -0.449909508228302,
                "ztf_magdiff": 0.155372753739357,
                "ztf_fwhm": 2.60999989509583,
                "ztf_classtar": 0.978999972343445,
                "ztf_mindtoedge": 295.438690185547,
                "ztf_magfromlim": 0.995871007442474,
                "ztf_seeratio": 1.04327762126923,
                "ztf_aimage": 0.750999987125397,
                "ztf_bimage": 0.73199999332428,
                "ztf_aimagerat": 0.287739455699921,
                "ztf_bimagerat": 0.280459761619568,
                "ztf_elong": 1.02595627307892,
                "ztf_rb": 0.766666650772095,
                "ztf_ssdistnr": -999.0,
                "ztf_ssmagnr": -999.0,
                "ztf_sumrat": 0.990525722503662,
                "ztf_magapbig": 19.0998992919922,
                "ztf_sigmagapbig": 0.229000002145767,
                "ztf_ranr": 291.3345928,
                "ztf_decnr": 27.0027442,
                "ztf_sgmag1": 16.9043998718262,
                "ztf_srmag1": 15.1589002609253,
                "ztf_simag1": 12.5150003433228,
                "ztf_szmag1": 11.5790004730225,
                "ztf_sgscore1": 0.5,
                "ztf_distpsnr1": 0.133756592869759,
                "ztf_jdstarthist": 2458247.8927778,
                "ztf_jdendhist": 2458271.9624074,
                "ztf_scorr": 9.4633846282959,
                "ztf_sgmag2": 17.7215003967285,
                "ztf_srmag2": 17.5527992248535,
                "ztf_simag2": 17.5006008148193,
                "ztf_szmag2": 17.3966999053955,
                "ztf_sgscore2": 0.913958013057709,
                "ztf_distpsnr2": 5.84553670883179,
                "ztf_sgmag3": 21.5006999969482,
                "ztf_srmag3": 20.1811008453369,
                "ztf_simag3": 19.6082992553711,
                "ztf_szmag3": 19.05299949646,
                "ztf_sgscore3": 0.5,
                "ztf_distpsnr3": 6.34958171844482,
                "ztf_jdstartref": 2458204.006921,
                "ztf_jdendref": 2458246.968275,
                "ztf_pdiffimfilename": "ztf_20180602462396_000639_zg_c11_o_q3_scimrefdiffimg.fits",
                "ztf_programpi": "Kulkarni",
                "ztf_isdiffpos": "f",
                "ztf_ssnamenr": "null"
            }
        },
        {
            "ra": 291.3346638,
            "survey": 1,
            "ingest_time": 1542244842,
            "mjd": 58274.4000579002,
            "dec": 27.0027669,
            "original_id": 520400054215010010,
            "alert_id": 40125,
            "locus_id": 8145,
            "htm20": 13917271198096,
            "properties": {
                "ztf_fid": 1,
                "ztf_pid": 520400054215,
                "ztf_programid": 1,
                "ztf_candid": 520400054215010010,
                "ztf_tblid": 10,
                "ztf_nid": 520,
                "ztf_rcid": 42,
                "ztf_field": 639,
                "ztf_nneg": 4,
                "ztf_nbad": 0,
                "ztf_ndethist": 8,
                "ztf_ncovhist": 14,
                "ztf_tooflag": 0,
                "ztf_objectidps1": 140402913346193843,
                "ztf_objectidps2": 140402913333622526,
                "ztf_objectidps3": 140402913363165002,
                "ztf_nmtchps": 76,
                "ztf_rfid": 639120142,
                "ztf_nframesref": 15,
                "ztf_jd": 2458274.9000579,
                "ztf_diffmaglim": 20.7218685150146,
                "ztf_xpos": 2771.49047851562,
                "ztf_ypos": 558.9501953125,
                "ztf_ra": 291.3346638,
                "ztf_dec": 27.0027669,
                "ztf_magpsf": 19.1642589569092,
                "ztf_sigmapsf": 0.0746358931064606,
                "ztf_chipsf": 3.68503999710083,
                "ztf_magap": 19.0818004608154,
                "ztf_sigmagap": 0.0997999981045723,
                "ztf_distnr": 0.240218102931976,
                "ztf_magnr": 16.7970008850098,
                "ztf_sigmagnr": 0.017000000923872,
                "ztf_chinr": 0.680000007152557,
                "ztf_sharpnr": 0.0280000008642673,
                "ztf_sky": -1.42463397979736,
                "ztf_magdiff": -0.0824582204222679,
                "ztf_fwhm": 2.52999997138977,
                "ztf_classtar": 0.994000017642975,
                "ztf_mindtoedge": 301.009490966797,
                "ztf_magfromlim": 1.64006865024567,
                "ztf_seeratio": 1.01005744934082,
                "ztf_aimage": 0.73199999332428,
                "ztf_bimage": 0.680999994277954,
                "ztf_aimagerat": 0.289328068494797,
                "ztf_bimagerat": 0.269169956445694,
                "ztf_elong": 1.07488989830017,
                "ztf_rb": 0.716666638851166,
                "ztf_ssdistnr": -999.0,
                "ztf_ssmagnr": -999.0,
                "ztf_sumrat": 0.965696573257446,
                "ztf_magapbig": 18.9787006378174,
                "ztf_sigmagapbig": 0.111199997365475,
                "ztf_ranr": 291.3345928,
                "ztf_decnr": 27.0027442,
                "ztf_sgmag1": 16.9043998718262,
                "ztf_srmag1": 15.1589002609253,
                "ztf_simag1": 12.5150003433228,
                "ztf_szmag1": 11.5790004730225,
                "ztf_sgscore1": 0.5,
                "ztf_distpsnr1": 0.273391336202621,
                "ztf_jdstarthist": 2458247.8927778,
                "ztf_jdendhist": 2458274.9000579,
                "ztf_scorr": 6.83001470565796,
                "ztf_sgmag2": 17.7215003967285,
                "ztf_srmag2": 17.5527992248535,
                "ztf_simag2": 17.5006008148193,
                "ztf_szmag2": 17.3966999053955,
                "ztf_sgscore2": 0.913958013057709,
                "ztf_distpsnr2": 6.0287618637085,
                "ztf_sgmag3": 21.5006999969482,
                "ztf_srmag3": 20.1811008453369,
                "ztf_simag3": 19.6082992553711,
                "ztf_szmag3": 19.05299949646,
                "ztf_sgscore3": 0.5,
                "ztf_distpsnr3": 6.18067741394043,
                "ztf_jdstartref": 2458204.006921,
                "ztf_jdendref": 2458246.968275,
                "ztf_pdiffimfilename": "ztf_20180605400046_000639_zg_c11_o_q3_scimrefdiffimg.fits",
                "ztf_programpi": "Kulkarni",
                "ztf_isdiffpos": "f",
                "ztf_ssnamenr": "null"
            }
        },
        {
            "ra": 291.3347039,
            "survey": 1,
            "ingest_time": 1542346612,
            "mjd": 58293.4212384,
            "dec": 27.0027419,
            "original_id": 539421234215010005,
            "alert_id": 546007,
            "locus_id": 8145,
            "htm20": 13917271198096,
            "properties": {
                "ztf_fid": 1,
                "ztf_pid": 539421234215,
                "ztf_programid": 1,
                "ztf_candid": 539421234215010005,
                "ztf_tblid": 5,
                "ztf_nid": 539,
                "ztf_rcid": 42,
                "ztf_field": 639,
                "ztf_nneg": 1,
                "ztf_nbad": 0,
                "ztf_ndethist": 12,
                "ztf_ncovhist": 27,
                "ztf_tooflag": 0,
                "ztf_objectidps1": 140402913346193843,
                "ztf_objectidps2": 140402913333622526,
                "ztf_objectidps3": 140402913363165002,
                "ztf_nmtchps": 76,
                "ztf_rfid": 639120142,
                "ztf_nframesref": 15,
                "ztf_jd": 2458293.9212384,
                "ztf_diffmaglim": 20.5651226043701,
                "ztf_xpos": 2777.94750976562,
                "ztf_ypos": 338.722198486328,
                "ztf_ra": 291.3347039,
                "ztf_dec": 27.0027419,
                "ztf_magpsf": 18.9303169250488,
                "ztf_sigmapsf": 0.104493595659733,
                "ztf_chipsf": 3.13332796096802,
                "ztf_magap": 18.9750003814697,
                "ztf_sigmagap": 0.095600001513958,
                "ztf_distnr": 0.357593566179276,
                "ztf_magnr": 16.7970008850098,
                "ztf_sigmagnr": 0.017000000923872,
                "ztf_chinr": 0.680000007152557,
                "ztf_sharpnr": 0.0280000008642673,
                "ztf_sky": -0.347773104906082,
                "ztf_magdiff": 0.044684000313282,
                "ztf_fwhm": 2.33999991416931,
                "ztf_classtar": 0.968999981880188,
                "ztf_mindtoedge": 294.552612304688,
                "ztf_magfromlim": 1.59012293815613,
                "ztf_seeratio": 1.1646466255188,
                "ztf_aimage": 0.792999982833862,
                "ztf_bimage": 0.717000007629395,
                "ztf_aimagerat": 0.338888883590698,
                "ztf_bimagerat": 0.306410253047943,
                "ztf_elong": 1.10599720478058,
                "ztf_rb": 0.736666679382324,
                "ztf_ssdistnr": -999.0,
                "ztf_ssmagnr": -999.0,
                "ztf_sumrat": 1.0,
                "ztf_magapbig": 19.0601005554199,
                "ztf_sigmagapbig": 0.127000004053116,
                "ztf_ranr": 291.3345928,
                "ztf_decnr": 27.0027442,
                "ztf_sgmag1": 16.9043998718262,
                "ztf_srmag1": 15.1589002609253,
                "ztf_simag1": 12.5150003433228,
                "ztf_szmag1": 11.5790004730225,
                "ztf_sgscore1": 0.5,
                "ztf_distpsnr1": 0.357201188802719,
                "ztf_jdstarthist": 2458247.8927778,
                "ztf_jdendhist": 2458293.9212384,
                "ztf_scorr": 8.35030937194824,
                "ztf_sgmag2": 17.7215003967285,
                "ztf_srmag2": 17.5527992248535,
                "ztf_simag2": 17.5006008148193,
                "ztf_szmag2": 17.3966999053955,
                "ztf_sgscore2": 0.913958013057709,
                "ztf_distpsnr2": 6.06166744232178,
                "ztf_sgmag3": 21.5006999969482,
                "ztf_srmag3": 20.1811008453369,
                "ztf_simag3": 19.6082992553711,
                "ztf_szmag3": 19.05299949646,
                "ztf_sgscore3": 0.5,
                "ztf_distpsnr3": 6.12294435501099,
                "ztf_jdstartref": 2458204.006921,
                "ztf_jdendref": 2458246.968275,
                "ztf_pdiffimfilename": "ztf_20180624421238_000639_zg_c11_o_q3_scimrefdiffimg.fits",
                "ztf_programpi": "Kulkarni",
                "ztf_isdiffpos": "f",
                "ztf_ssnamenr": "null"
            }
        },
        {
            "ra": 291.3346861,
            "survey": 1,
            "ingest_time": 1542369534,
            "mjd": 58296.4472801001,
            "dec": 27.0027271,
            "original_id": 542447284215010002,
            "alert_id": 604338,
            "locus_id": 8145,
            "htm20": 13917271198096,
            "properties": {
                "ztf_fid": 1,
                "ztf_pid": 542447284215,
                "ztf_programid": 1,
                "ztf_candid": 542447284215010002,
                "ztf_tblid": 2,
                "ztf_nid": 542,
                "ztf_rcid": 42,
                "ztf_field": 639,
                "ztf_nneg": 3,
                "ztf_nbad": 0,
                "ztf_ndethist": 14,
                "ztf_ncovhist": 29,
                "ztf_tooflag": 0,
                "ztf_objectidps1": 140402913346193843,
                "ztf_objectidps2": 140402913333622526,
                "ztf_objectidps3": 140402913363165002,
                "ztf_nmtchps": 76,
                "ztf_rfid": 639120142,
                "ztf_nframesref": 15,
                "ztf_jd": 2458296.9472801,
                "ztf_diffmaglim": 19.7944412231445,
                "ztf_xpos": 2777.32055664062,
                "ztf_ypos": 477.047393798828,
                "ztf_ra": 291.3346861,
                "ztf_dec": 27.0027271,
                "ztf_magpsf": 18.6603164672852,
                "ztf_sigmapsf": 0.114759266376495,
                "ztf_chipsf": 1.74713683128357,
                "ztf_magap": 18.8031005859375,
                "ztf_sigmagap": 0.155000001192093,
                "ztf_distnr": 0.293038368225098,
                "ztf_magnr": 16.7970008850098,
                "ztf_sigmagnr": 0.017000000923872,
                "ztf_chinr": 0.680000007152557,
                "ztf_sharpnr": 0.0280000008642673,
                "ztf_sky": -0.315022200345993,
                "ztf_magdiff": 0.142783999443054,
                "ztf_fwhm": 1.30098938941956,
                "ztf_classtar": 0.994000017642975,
                "ztf_mindtoedge": 295.179504394531,
                "ztf_magfromlim": 0.9913409948349,
                "ztf_seeratio": 2.0,
                "ztf_aimage": 0.745999991893768,
                "ztf_bimage": 0.689999997615814,
                "ztf_aimagerat": 0.573409736156464,
                "ztf_bimagerat": 0.530365586280823,
                "ztf_elong": 1.08115947246552,
                "ztf_rb": 0.686666667461395,
                "ztf_ssdistnr": -999.0,
                "ztf_ssmagnr": -999.0,
                "ztf_sumrat": 0.9772047996521,
                "ztf_magapbig": 18.9407997131348,
                "ztf_sigmagapbig": 0.223299995064735,
                "ztf_ranr": 291.3345928,
                "ztf_decnr": 27.0027442,
                "ztf_sgmag1": 16.9043998718262,
                "ztf_srmag1": 15.1589002609253,
                "ztf_simag1": 12.5150003433228,
                "ztf_szmag1": 11.5790004730225,
                "ztf_sgscore1": 0.5,
                "ztf_distpsnr1": 0.293649286031723,
                "ztf_jdstarthist": 2458247.8927778,
                "ztf_jdendhist": 2458296.9472801,
                "ztf_scorr": 6.3869161605835,
                "ztf_sgmag2": 17.7215003967285,
                "ztf_srmag2": 17.5527992248535,
                "ztf_simag2": 17.5006008148193,
                "ztf_szmag2": 17.3966999053955,
                "ztf_sgscore2": 0.913958013057709,
                "ztf_distpsnr2": 5.98358249664307,
                "ztf_sgmag3": 21.5006999969482,
                "ztf_srmag3": 20.1811008453369,
                "ztf_simag3": 19.6082992553711,
                "ztf_szmag3": 19.05299949646,
                "ztf_sgscore3": 0.5,
                "ztf_distpsnr3": 6.20010900497437,
                "ztf_jdstartref": 2458204.006921,
                "ztf_jdendref": 2458246.968275,
                "ztf_pdiffimfilename": "ztf_20180627447269_000639_zg_c11_o_q3_scimrefdiffimg.fits",
                "ztf_programpi": "Kulkarni",
                "ztf_isdiffpos": "f",
                "ztf_ssnamenr": "null"
            }
        },
        {
            "ra": 291.3347308,
            "survey": 1,
            "ingest_time": 1542391875,
            "mjd": 58300.4475579001,
            "dec": 27.0027069,
            "original_id": 546447554215010005,
            "alert_id": 654787,
            "locus_id": 8145,
            "htm20": 13917271198160,
            "properties": {
                "ztf_fid": 1,
                "ztf_pid": 546447554215,
                "ztf_programid": 1,
                "ztf_candid": 546447554215010005,
                "ztf_tblid": 5,
                "ztf_nid": 546,
                "ztf_rcid": 42,
                "ztf_field": 639,
                "ztf_nneg": 3,
                "ztf_nbad": 0,
                "ztf_ndethist": 17,
                "ztf_ncovhist": 34,
                "ztf_tooflag": 0,
                "ztf_objectidps1": 140402913346193843,
                "ztf_objectidps2": 140402913333622526,
                "ztf_objectidps3": 140402913363165002,
                "ztf_nmtchps": 76,
                "ztf_rfid": 639120142,
                "ztf_nframesref": 15,
                "ztf_jd": 2458300.9475579,
                "ztf_diffmaglim": 20.113302230835,
                "ztf_xpos": 2771.30224609375,
                "ztf_ypos": 491.305908203125,
                "ztf_ra": 291.3347308,
                "ztf_dec": 27.0027069,
                "ztf_magpsf": 18.7107734680176,
                "ztf_sigmapsf": 0.115882724523544,
                "ztf_chipsf": 2.12425851821899,
                "ztf_magap": 18.8129005432129,
                "ztf_sigmagap": 0.124899998307228,
                "ztf_distnr": 0.451757252216339,
                "ztf_magnr": 16.7970008850098,
                "ztf_sigmagnr": 0.017000000923872,
                "ztf_chinr": 0.680000007152557,
                "ztf_sharpnr": 0.0280000008642673,
                "ztf_sky": -1.64467096328735,
                "ztf_magdiff": 0.102126002311707,
                "ztf_fwhm": 1.25150382518768,
                "ztf_classtar": 0.985000014305115,
                "ztf_mindtoedge": 301.197692871094,
                "ztf_magfromlim": 1.30040216445923,
                "ztf_seeratio": 2.0,
                "ztf_aimage": 0.825999975204468,
                "ztf_bimage": 0.762000024318695,
                "ztf_aimagerat": 0.660005986690521,
                "ztf_bimagerat": 0.608867466449738,
                "ztf_elong": 1.08398950099945,
                "ztf_rb": 0.660000026226044,
                "ztf_ssdistnr": -999.0,
                "ztf_ssmagnr": -999.0,
                "ztf_sumrat": 0.993769526481628,
                "ztf_magapbig": 18.93630027771,
                "ztf_sigmagapbig": 0.176100000739098,
                "ztf_ranr": 291.3345928,
                "ztf_decnr": 27.0027442,
                "ztf_sgmag1": 16.9043998718262,
                "ztf_srmag1": 15.1589002609253,
                "ztf_simag1": 12.5150003433228,
                "ztf_szmag1": 11.5790004730225,
                "ztf_sgscore1": 0.5,
                "ztf_distpsnr1": 0.440117061138153,
                "ztf_jdstarthist": 2458247.8927778,
                "ztf_jdendhist": 2458300.9475579,
                "ztf_scorr": 6.4972243309021,
                "ztf_sgmag2": 17.7215003967285,
                "ztf_srmag2": 17.5527992248535,
                "ztf_simag2": 17.5006008148193,
                "ztf_szmag2": 17.3966999053955,
                "ztf_sgscore2": 0.913958013057709,
                "ztf_distpsnr2": 6.04286289215088,
                "ztf_sgmag3": 21.5006999969482,
                "ztf_srmag3": 20.1811008453369,
                "ztf_simag3": 19.6082992553711,
                "ztf_szmag3": 19.05299949646,
                "ztf_sgscore3": 0.5,
                "ztf_distpsnr3": 6.12410068511963,
                "ztf_jdstartref": 2458204.006921,
                "ztf_jdendref": 2458246.968275,
                "ztf_pdiffimfilename": "ztf_20180701447512_000639_zg_c11_o_q3_scimrefdiffimg.fits",
                "ztf_programpi": "Kulkarni",
                "ztf_isdiffpos": "f",
                "ztf_ssnamenr": "null"
            }
        },
        {
            "ra": 291.3346385,
            "survey": 1,
            "ingest_time": 1542396282,
            "mjd": 58301.3202893999,
            "dec": 27.0027317,
            "original_id": 547320284215010002,
            "alert_id": 664117,
            "locus_id": 8145,
            "htm20": 13917271328352,
            "properties": {
                "ztf_fid": 1,
                "ztf_pid": 547320284215,
                "ztf_programid": 1,
                "ztf_candid": 547320284215010002,
                "ztf_tblid": 2,
                "ztf_nid": 547,
                "ztf_rcid": 42,
                "ztf_field": 639,
                "ztf_nneg": 3,
                "ztf_nbad": 0,
                "ztf_ndethist": 18,
                "ztf_ncovhist": 35,
                "ztf_tooflag": 0,
                "ztf_objectidps1": 140402913346193843,
                "ztf_objectidps2": 140402913333622526,
                "ztf_objectidps3": 140402913363165002,
                "ztf_nmtchps": 76,
                "ztf_rfid": 639120142,
                "ztf_nframesref": 15,
                "ztf_jd": 2458301.8202894,
                "ztf_diffmaglim": 20.4362182617188,
                "ztf_xpos": 2759.13452148438,
                "ztf_ypos": 323.056213378906,
                "ztf_ra": 291.3346385,
                "ztf_dec": 27.0027317,
                "ztf_magpsf": 18.8658103942871,
                "ztf_sigmapsf": 0.115461200475693,
                "ztf_chipsf": 4.26587677001953,
                "ztf_magap": 19.0461006164551,
                "ztf_sigmagap": 0.120099999010563,
                "ztf_distnr": 0.14770644903183,
                "ztf_magnr": 16.7970008850098,
                "ztf_sigmagnr": 0.017000000923872,
                "ztf_chinr": 0.680000007152557,
                "ztf_sharpnr": 0.0280000008642673,
                "ztf_sky": -1.80386698246002,
                "ztf_magdiff": 0.180289998650551,
                "ztf_fwhm": 2.34999990463257,
                "ztf_classtar": 0.99099999666214,
                "ztf_mindtoedge": 313.365600585938,
                "ztf_magfromlim": 1.39011871814728,
                "ztf_seeratio": 1.07259917259216,
                "ztf_aimage": 0.825999975204468,
                "ztf_bimage": 0.740000009536743,
                "ztf_aimagerat": 0.351489365100861,
                "ztf_bimagerat": 0.31489360332489,
                "ztf_elong": 1.11621618270874,
                "ztf_rb": 0.70333331823349,
                "ztf_ssdistnr": -999.0,
                "ztf_ssmagnr": -999.0,
                "ztf_sumrat": 1.0,
                "ztf_magapbig": 19.1431999206543,
                "ztf_sigmagapbig": 0.162499994039536,
                "ztf_ranr": 291.3345928,
                "ztf_decnr": 27.0027442,
                "ztf_sgmag1": 16.9043998718262,
                "ztf_srmag1": 15.1589002609253,
                "ztf_simag1": 12.5150003433228,
                "ztf_szmag1": 11.5790004730225,
                "ztf_sgscore1": 0.5,
                "ztf_distpsnr1": 0.144391372799873,
                "ztf_jdstarthist": 2458247.8927778,
                "ztf_jdendhist": 2458301.8202894,
                "ztf_scorr": 7.10183191299438,
                "ztf_sgmag2": 17.7215003967285,
                "ztf_srmag2": 17.5527992248535,
                "ztf_simag2": 17.5006008148193,
                "ztf_szmag2": 17.3966999053955,
                "ztf_sgscore2": 0.913958013057709,
                "ztf_distpsnr2": 5.8826847076416,
                "ztf_sgmag3": 21.5006999969482,
                "ztf_srmag3": 20.1811008453369,
                "ztf_simag3": 19.6082992553711,
                "ztf_szmag3": 19.05299949646,
                "ztf_sgscore3": 0.5,
                "ztf_distpsnr3": 6.31780529022217,
                "ztf_jdstartref": 2458204.006921,
                "ztf_jdendref": 2458246.968275,
                "ztf_pdiffimfilename": "ztf_20180702320278_000639_zg_c11_o_q3_scimrefdiffimg.fits",
                "ztf_programpi": "Kulkarni",
                "ztf_isdiffpos": "f",
                "ztf_ssnamenr": "null"
            }
        },
        {
            "ra": 291.3346275,
            "survey": 1,
            "ingest_time": 1542430563,
            "mjd": 58305.3312615999,
            "dec": 27.0026888,
            "original_id": 551331264215010007,
            "alert_id": 739927,
            "locus_id": 8145,
            "htm20": 13917271328480,
            "properties": {
                "ztf_fid": 1,
                "ztf_pid": 551331264215,
                "ztf_programid": 1,
                "ztf_candid": 551331264215010007,
                "ztf_tblid": 7,
                "ztf_nid": 551,
                "ztf_rcid": 42,
                "ztf_field": 639,
                "ztf_nneg": 4,
                "ztf_nbad": 0,
                "ztf_ndethist": 24,
                "ztf_ncovhist": 43,
                "ztf_tooflag": 0,
                "ztf_objectidps1": 140402913346193843,
                "ztf_objectidps2": 140402913333622526,
                "ztf_objectidps3": 140402913363165002,
                "ztf_nmtchps": 76,
                "ztf_rfid": 639120142,
                "ztf_nframesref": 15,
                "ztf_jd": 2458305.8312616,
                "ztf_diffmaglim": 20.9077548980713,
                "ztf_xpos": 2760.06982421875,
                "ztf_ypos": 416.721801757812,
                "ztf_ra": 291.3346275,
                "ztf_dec": 27.0026888,
                "ztf_magpsf": 19.0085830688477,
                "ztf_sigmapsf": 0.143584311008453,
                "ztf_chipsf": 4.30901288986206,
                "ztf_magap": 19.1352996826172,
                "ztf_sigmagap": 0.0925000011920929,
                "ztf_distnr": 0.236773505806923,
                "ztf_magnr": 16.7970008850098,
                "ztf_sigmagnr": 0.017000000923872,
                "ztf_chinr": 0.680000007152557,
                "ztf_sharpnr": 0.0280000008642673,
                "ztf_sky": -0.823879182338715,
                "ztf_magdiff": 0.126717001199722,
                "ztf_fwhm": 2.33999991416931,
                "ztf_classtar": 0.975000023841858,
                "ztf_mindtoedge": 312.430206298828,
                "ztf_magfromlim": 1.77245533466339,
                "ztf_seeratio": 1.13556337356567,
                "ztf_aimage": 0.689000010490417,
                "ztf_bimage": 0.580999970436096,
                "ztf_aimagerat": 0.294444441795349,
                "ztf_bimagerat": 0.248290598392487,
                "ztf_elong": 1.18588638305664,
                "ztf_rb": 0.666666686534882,
                "ztf_ssdistnr": -999.0,
                "ztf_ssmagnr": -999.0,
                "ztf_sumrat": 1.0,
                "ztf_magapbig": 19.0249996185303,
                "ztf_sigmagapbig": 0.0998999997973442,
                "ztf_ranr": 291.3345928,
                "ztf_decnr": 27.0027442,
                "ztf_sgmag1": 16.9043998718262,
                "ztf_srmag1": 15.1589002609253,
                "ztf_simag1": 12.5150003433228,
                "ztf_szmag1": 11.5790004730225,
                "ztf_sgscore1": 0.5,
                "ztf_distpsnr1": 0.160420700907707,
                "ztf_jdstarthist": 2458247.8927778,
                "ztf_jdendhist": 2458305.8312616,
                "ztf_scorr": 9.72134304046631,
                "ztf_sgmag2": 17.7215003967285,
                "ztf_srmag2": 17.5527992248535,
                "ztf_simag2": 17.5006008148193,
                "ztf_szmag2": 17.3966999053955,
                "ztf_sgscore2": 0.913958013057709,
                "ztf_distpsnr2": 5.75176525115967,
                "ztf_sgmag3": 21.5006999969482,
                "ztf_srmag3": 20.1811008453369,
                "ztf_simag3": 19.6082992553711,
                "ztf_szmag3": 19.05299949646,
                "ztf_sgscore3": 0.5,
                "ztf_distpsnr3": 6.4330792427063,
                "ztf_jdstartref": 2458204.006921,
                "ztf_jdendref": 2458246.968275,
                "ztf_pdiffimfilename": "ztf_20180706331204_000639_zg_c11_o_q3_scimrefdiffimg.fits",
                "ztf_programpi": "Kulkarni",
                "ztf_isdiffpos": "f",
                "ztf_ssnamenr": "null"
            }
        }
    ],
    "catalog_objects": {
        "2mass_psc": [
            {
                "designation": "19252031+2700099 ",
                "cc_flg": "000",
                "h_psfchi": 1.78,
                "b_m_opt": 16.8,
                "h_snr": 6349.1,
                "hemis": "n",
                "dist_edge_ns": 10802,
                "htm16ID": 54364341126,
                "j_m": 9.362,
                "ndet": "666666",
                "k_psfchi": 1.79,
                "vr_m_opt": 12.7,
                "k_m": 7.963,
                "date": "1998-10-02",
                "dist_edge_ew": 93,
                "cx": 0.3241532057,
                "j_cmsig": 0.015,
                "prox": 5.9,
                "j_m_stdap": 9.367,
                "nopt_mchs": 1,
                "sid": 161392752,
                "k_cmsig": 0.021,
                "scan": 16,
                "dist_edge_flg": "ne",
                "cy": -0.8299268004,
                "j_msigcom": 0.02,
                "pxpa": 256,
                "j_msig_stdap": 0.006,
                "ext_key": null,
                "ra": 291.334646,
                "k_msigcom": 0.026,
                "glon": 60.698,
                "dup_src": 0,
                "cz": 0.4540332645,
                "j_snr": 5657.6,
                "pxcntr": 347883851,
                "h_m_stdap": 8.346,
                "scan_key": 21436,
                "decl": 27.00275,
                "k_snr": 5510.9,
                "glat": 5.173,
                "use_src": 1,
                "id": 1192520315127000989,
                "h_m": 8.353,
                "gal_contam": 0,
                "h_msig_stdap": 0.008,
                "coadd_key": 493017,
                "err_maj": 0.06,
                "ph_qual": "AAA",
                "x_scan": -158.1,
                "a": "U",
                "h_cmsig": 0.017,
                "mp_flg": 0,
                "k_m_stdap": 7.949,
                "coadd": 138,
                "err_min": 0.06,
                "rd_flg": "211",
                "jdate": 2451088.6084,
                "dist_opt": 1.8,
                "h_msigcom": 0.023,
                "pts_key": 347883857,
                "k_msig_stdap": 0.01,
                "htm20ID": 13917271328352,
                "err_ang": 90,
                "bl_flg": "111",
                "j_psfchi": 1.75,
                "phi_opt": 84
            }
        ],
        "bright_guide_star_cat": [
            {
                "RightAsc": 5.0847471375,
                "VMag": 14.3057,
                "IMagErr": null,
                "variableFlag": 0,
                "decProperMotionErr": 10.5088,
                "UMagCode": null,
                "KMag": null,
                "Declination_deg": 27.0027604523,
                "Declination": 0.471287077,
                "VMagErr": 0.359831,
                "IMagCode": null,
                "multipleFlag": 0,
                "deltaEpoch": 43.9614,
                "BMag": 17.6996,
                "KMagErr": null,
                "PositionEpoch": 1986.67,
                "VMagCode": 1,
                "JMag": null,
                "htm20ID": 13917271328355,
                "FpgMag": 14.7464,
                "BMagErr": 0.447513,
                "KMagCode": null,
                "raEpsilon": 0.336762,
                "NpgMag": 11.09,
                "JMagErr": null,
                "htm16ID": 54364341126,
                "FpgMagErr": 0.430884,
                "BMagCode": 7,
                "classification": 3,
                "decEpsilon": 0.346182,
                "NpgMagErr": 0.424905,
                "JMagCode": null,
                "cx": 0.3241517976,
                "sid": 296977200,
                "FpgMagCode": 35,
                "RMag": null,
                "semiMajorAxis": 3.3408,
                "raProperMotion": 7.99589,
                "NpgMagCode": 37,
                "HMag": null,
                "cy": -0.8299272615,
                "gscID2": 75636,
                "JpgMag": 17.4122,
                "RMagErr": null,
                "eccentricity": 0.0485876,
                "decProperMotion": -5.06932,
                "UMag": null,
                "HMagErr": null,
                "cz": 0.454033427,
                "gsc1ID": null,
                "JpgMagErr": 0.435427,
                "RMagCode": null,
                "positionangle": 94.8965,
                "raProperMotionErr": 18.5789,
                "UMagErr": null,
                "HMagCode": null,
                "RightAsc_deg": 291.3345508703,
                "hstID": "N22T075636",
                "JpgMagCode": 18,
                "IMag": null,
                "sourceStatus": 1000111509
            }
        ]
    }
}